info face="Roboto Condensed" size=76 bold=0 italic=0 charset="" unicode=1 stretchH=100 smooth=1 aa=1 padding=0,0,0,1 spacing=1,1 outline=0
common lineHeight=76 base=60 scaleW=256 scaleH=256 pages=1 packed=0 alphaChnl=1 redChnl=0 greenChnl=0 blueChnl=0
page id=0 file="roboto.76_0.png"
chars count=14
char id=44   x=7     y=48    width=8     height=14    xoffset=1     yoffset=54    xadvance=12    page=0  chnl=15
char id=46   x=16    y=48    width=6     height=5     xoffset=3     yoffset=55    xadvance=14    page=0  chnl=15
char id=48   x=0     y=0     width=25    height=47    xoffset=3     yoffset=14    xadvance=31    page=0  chnl=15
char id=49   x=239   y=0     width=15    height=45    xoffset=4     yoffset=15    xadvance=31    page=0  chnl=15
char id=50   x=78    y=0     width=26    height=46    xoffset=2     yoffset=14    xadvance=31    page=0  chnl=15
char id=51   x=26    y=0     width=25    height=47    xoffset=2     yoffset=14    xadvance=31    page=0  chnl=15
char id=52   x=183   y=0     width=28    height=45    xoffset=1     yoffset=15    xadvance=31    page=0  chnl=15
char id=53   x=105   y=0     width=25    height=46    xoffset=3     yoffset=15    xadvance=31    page=0  chnl=15
char id=54   x=131   y=0     width=25    height=46    xoffset=3     yoffset=15    xadvance=31    page=0  chnl=15
char id=55   x=212   y=0     width=26    height=45    xoffset=2     yoffset=15    xadvance=31    page=0  chnl=15
char id=56   x=52    y=0     width=25    height=47    xoffset=2     yoffset=14    xadvance=31    page=0  chnl=15
char id=57   x=157   y=0     width=25    height=46    xoffset=2     yoffset=14    xadvance=31    page=0  chnl=15
char id=58   x=0     y=48    width=6     height=33    xoffset=3     yoffset=27    xadvance=12    page=0  chnl=15
char id=183  x=23    y=48    width=6     height=5     xoffset=4     yoffset=35    xadvance=15    page=0  chnl=15
